{
    "data": {
        "source": "data",
        "format": "BS",
        "paths": [
	    "/cvmfs/atlas-nightlies.cern.ch/repo/data/data-art/TrigP1Test/data22_13p6TeV.00440499.physics_EnhancedBias.merge.RAW._lb0470._SFO-11._0001.1",
	    "/cvmfs/atlas-nightlies.cern.ch/repo/data/data-art/TrigP1Test/data22_13p6TeV.00440499.physics_EnhancedBias.merge.RAW._lb0470._SFO-12._0001.1"
        ]
    },
    "data_Main": {
        "source": "data",
        "format": "BS",
        "paths": [
            "/cvmfs/atlas-nightlies.cern.ch/repo/data/data-art/TrigP1Test/data22_13p6TeV.00440499.physics_Main.daq.RAW._lb0461._SFO-13._0004.data"
        ]
    },
    "data_run1": {
        "source": "data",
        "format": "BS",
        "paths": [
            "/cvmfs/atlas-nightlies.cern.ch/repo/data/data-art/TrigAnalysisTest/data12_8TeV.00209109.physics_JetTauEtmiss.merge.RAW._lb0186._SFO-1._0001.1"
        ]
    },
    "data_run2_EB": {
        "source": "data",
        "format": "BS",
        "paths": [
            "/cvmfs/atlas-nightlies.cern.ch/repo/data/data-art/TrigP1Test/data18_13TeV.00360026.physics_EnhancedBias.merge.RAW._lb0151._SFO-1._0001.1",
	    "/cvmfs/atlas-nightlies.cern.ch/repo/data/data-art/TrigP1Test/data18_13TeV.00360026.physics_EnhancedBias.merge.RAW._lb0151._SFO-1._0002.1"
        ]
    },
    "data_run2_Main": {
        "source": "data",
        "format": "BS",
        "paths": [
            "/cvmfs/atlas-nightlies.cern.ch/repo/data/data-art/TrigP1Test/data18_13TeV.00360026.physics_Main.daq.RAW._lb0100._SFO-1._0001.data"
        ]
    },
    "data_dbg_stream": {
        "source": "data",
        "format": "BS",
        "paths": [
            "/cvmfs/atlas-nightlies.cern.ch/repo/data/data-art/TrigP1Test/data21_calib.00394829.debug_PUCrash.daq.RAW._lb0000._SFO-16._0001.data"
        ]
    },
    "data_cos": {
        "source": "data",
        "format": "BS",
        "paths": [
            "/cvmfs/atlas-nightlies.cern.ch/repo/data/data-art/TrigP1Test/data23_cos.00455088.physics_CosmicMuons.merge.RAW._lb0242._SFO-11._0001.1",
	    "/cvmfs/atlas-nightlies.cern.ch/repo/data/data-art/TrigP1Test/data23_cos.00455088.physics_CosmicMuons.merge.RAW._lb0242._SFO-12._0001.1",
	    "/cvmfs/atlas-nightlies.cern.ch/repo/data/data-art/TrigP1Test/data23_cos.00455088.physics_CosmicMuons.merge.RAW._lb0242._SFO-13._0001.1"
	]
    },
    "data_ALFACalib": {
        "source": "data",
        "format": "BS",
        "paths": [
            "/cvmfs/atlas-nightlies.cern.ch/repo/data/data-art/TrigP1Test/data18_13TeV.00354863.calibration_ALFACalib.daq.RAW._lb0000._SFO-1._0018.data"
        ]
    },
    "data_lowmu": {
        "source":"data",
        "format":"BS",
        "paths": [
            "/cvmfs/atlas-nightlies.cern.ch/repo/data/data-art/TrigP1Test/data22_13p6TeV.00428770.express_express.merge.RAW._lb0221._SFO-ALL._0001.1"
        ]
    },
    "ttbar_mc16": {
        "source": "mc",
        "format": "RDO",
        "paths": [
	    "/cvmfs/atlas-nightlies.cern.ch/repo/data/data-art/TriggerTest/valid1.410000.PowhegPythiaEvtGen_P2012_ttbar_hdamp172p5_nonallhad.digit.RDO.e4993_s3214_d1697_tid26494053_00/RDO.26494053._000001.pool.root.1",
	    "/cvmfs/atlas-nightlies.cern.ch/repo/data/data-art/TriggerTest/valid1.410000.PowhegPythiaEvtGen_P2012_ttbar_hdamp172p5_nonallhad.digit.RDO.e4993_s3214_d1697_tid26494053_00/RDO.26494053._000007.pool.root.1"
        ]
    },
    "ttbar": {
        "source": "mc",
        "format": "RDO",
        "paths": [
	    "/cvmfs/atlas-nightlies.cern.ch/repo/data/data-art/TriggerTest/valid1.601229.PhPy8EG_A14_ttbar_hdamp258p75_SingleLep.recon.RDO.e8514_e8528_s4111_s4114_r14622_tid33359244_00/RDO.33359244._000011.pool.root.1",
	    "/cvmfs/atlas-nightlies.cern.ch/repo/data/data-art/TriggerTest/valid1.601229.PhPy8EG_A14_ttbar_hdamp258p75_SingleLep.recon.RDO.e8514_e8528_s4111_s4114_r14622_tid33359244_00/RDO.33359244._000016.pool.root.1"
        ]
    },
    "pbpb": {
        "source": "mc",
        "format": "RDO",
        "paths": [            
            "/cvmfs/atlas-nightlies.cern.ch/repo/data/data-art/TriggerTest/valid1.420000.Hijing_PbPb_5p02TeV_MinBias_Flow_JJFV6.recon.RDO.e4962_a890_s3136_r12384_tid24120377_00/RDO.24120377._000001.pool.root.1",
	    "/cvmfs/atlas-nightlies.cern.ch/repo/data/data-art/TriggerTest/valid1.420000.Hijing_PbPb_5p02TeV_MinBias_Flow_JJFV6.recon.RDO.e4962_a890_s3136_r12384_tid24120377_00/RDO.24120377._000002.pool.root.1"
        ]
    },
    "ttbar_noPU": {
        "source": "mc",
        "format": "RDO",
        "paths": [
            "/cvmfs/atlas-nightlies.cern.ch/repo/data/data-art/TrigInDetValidation/samples/valid1.601229.PhPy8EG_A14_ttbar_hdamp258p75_SingleLep.recon.RDO.e8514_e8528_s4111_s4114_r14655_tid33359656_00/RDO.33359656._000005.pool.root.1",
	    "/cvmfs/atlas-nightlies.cern.ch/repo/data/data-art/TrigInDetValidation/samples/valid1.601229.PhPy8EG_A14_ttbar_hdamp258p75_SingleLep.recon.RDO.e8514_e8528_s4111_s4114_r14655_tid33359656_00/RDO.33359656._000013.pool.root.1"
        ]
    },
    "ttbar_pu80": {
        "source": "mc",
        "format": "RDO",
        "paths": [
            "/cvmfs/atlas-nightlies.cern.ch/repo/data/data-art/TrigInDetValidation/samples/valid1.601229.PhPy8EG_A14_ttbar_hdamp258p75_SingleLep.recon.RDO.e8514_e8528_s4116_s4114_r14664_tid33428383_00/RDO.33428383._000006.pool.root.1",
            "/cvmfs/atlas-nightlies.cern.ch/repo/data/data-art/TrigInDetValidation/samples/valid1.601229.PhPy8EG_A14_ttbar_hdamp258p75_SingleLep.recon.RDO.e8514_e8528_s4116_s4114_r14664_tid33428383_00/RDO.33428383._000014.pool.root.1"
        ]
    },
    "bphysics_mumu": {
        "source": "mc",
        "format": "RDO",
        "paths": [
            "/cvmfs/atlas-nightlies.cern.ch/repo/data/data-art/TriggerTest/mc21a.mixedDimuonSample.digit.RDO.s3873_s3874_r13829.pool.root"
        ]
    },
    "bphysics_multimuon": {
        "source": "mc",
        "format": "RDO",
        "paths": [
            "/cvmfs/atlas-nightlies.cern.ch/repo/data/data-art/TriggerTest/mc21a.mixedMultimuonSample.digit.RDO.s3873_s3874_r13829.pool.root"
        ]
    },
    "bphysics_ee": {
	"source": "mc",
	"format": "RDO",
	"paths": [
	    "/cvmfs/atlas-nightlies.cern.ch/repo/data/data-art/TriggerTest/mc21a.mixedDielectronSample.digit.RDO.s3873_s3874_r13829.pool.root"
	]
    },
    "minbias": {
        "source": "mc",
        "format": "RDO",
        "paths": [
            "/cvmfs/atlas-nightlies.cern.ch/repo/data/data-art/TriggerTest/valid1.900341.Epos_LHC_minbias_inelastic.recon.RDO.e8514_e8528_s4111_s4114_r14655_tid33662301_00/RDO.33662301._000021.pool.root.1",
	    "/cvmfs/atlas-nightlies.cern.ch/repo/data/data-art/TriggerTest/valid1.900341.Epos_LHC_minbias_inelastic.recon.RDO.e8514_e8528_s4111_s4114_r14655_tid33662301_00/RDO.33662301._000029.pool.root.1"
        ]
    },
    "ttbar_HITS": {
        "source": "mc",
        "format": "HITS",
        "paths": [
            "/cvmfs/atlas-nightlies.cern.ch/repo/data/data-art/TrigAnalysisTest/valid1.410000.PowhegPythiaEvtGen_P2012_ttbar_hdamp172p5_nonallhad.simul.HITS.e4993_s3091_tid10504490_00/HITS.10504490._000001.pool.root.1"
        ]
    },
    "pileup_low": {
        "source": "mc",
        "format": "HITS",
        "paths": [
            "/cvmfs/atlas-nightlies.cern.ch/repo/data/data-art/TrigAnalysisTest/mc16_13TeV.361238.Pythia8EvtGen_A3NNPDF23LO_minbias_inelastic_low.simul.HITS.e4981_s3087_s3111_tid10701323_00/HITS.10701323._000001.pool.root.1"
        ]
    },
    "pileup_high": {
        "source": "mc",
        "format": "HITS",
        "paths": [
            "/cvmfs/atlas-nightlies.cern.ch/repo/data/data-art/TrigAnalysisTest/mc16_13TeV.361239.Pythia8EvtGen_A3NNPDF23LO_minbias_inelastic_high.simul.HITS.e4981_s3087_s3111_tid10701335_00/HITS.10701335._000011.pool.root.1"
        ]
    },
    "mc_cosmics": {
        "source": "mc",
        "format": "RDO",
        "paths": [
            "/cvmfs/atlas-nightlies.cern.ch/repo/data/data-art/TriggerTest/mc16_13TeV.310772.CosmicRays_CollisionSetup.recon.RDO.s3513_s3519_r11737_tid20237005_00/RDO.20237005.merge250"
        ]
    },
    "Zmumu": {
        "source": "mc",
        "format": "RDO",
        "paths": [
            "/cvmfs/atlas-nightlies.cern.ch/repo/data/data-art/TrigInDetValidation/samples/valid1.601190.PhPy8EG_AZNLO_Zmumu.recon.RDO.e8514_e8528_s4111_s4114_r14622_tid33359325_00/RDO.33359325._000001.pool.root.1",
	    "/cvmfs/atlas-nightlies.cern.ch/repo/data/data-art/TrigInDetValidation/samples/valid1.601190.PhPy8EG_AZNLO_Zmumu.recon.RDO.e8514_e8528_s4111_s4114_r14622_tid33359325_00/RDO.33359325._000010.pool.root.1"
        ]
    },
    "Single_mu_larged0": {
        "source": "mc",
        "format": "RDO",
        "paths": [
            "/cvmfs/atlas-nightlies.cern.ch/repo/data/data-art/TrigInDetValidation/samples/mc15_13TeV.107237.ParticleGenerator_mu_Pt4to100_vertxy20.recon.RDO.e3603_s2726_r7728/RDO.10240174._000001.pool.root.1"
        ]
    },
    "Single_mu_larged0_pu": {
        "source": "mc",
        "format": "RDO",
        "paths": [
            "/cvmfs/atlas-nightlies.cern.ch/repo/data/data-art/TrigInDetValidation/samples/mc15_13TeV.107237.ParticleGenerator_mu_Pt4to100_vertxy20.recon.RDO.e3603_s2726_r7772/RDO.09945423._000001.pool.root.1"
        ]
    },
    "Single_mu_Run4": {
        "source": "mc",
        "format": "RDO",
        "paths": [
            "/cvmfs/atlas-nightlies.cern.ch/repo/data/data-art/PhaseIIUpgrade/RDO/ATLAS-P2-RUN4-01-01-00/mc21_14TeV.900498.PG_single_muonpm_Pt100_etaFlatnp0_43.recon.RDO.e8481_s4038_r14362/RDO.32628466._000005.pool.root.1"
        ]
    },
    "Bphys_JpsiPhi": {
        "source": "mc",
        "format": "RDO",
        "paths": [
            "/cvmfs/atlas-nightlies.cern.ch/repo/data/data-art/TrigInDetValidation/samples/mc15_13TeV.300401.Pythia8BPhotospp_A14_CTEQ6L1_Bs_Jpsimu3p5mu3p5_phi.recon.RDO.e4397_s2608_r6869/RDO.06461186._000001.pool.root.1",
            "/cvmfs/atlas-nightlies.cern.ch/repo/data/data-art/TrigInDetValidation/samples/mc15_13TeV.300401.Pythia8BPhotospp_A14_CTEQ6L1_Bs_Jpsimu3p5mu3p5_phi.recon.RDO.e4397_s2608_r6869/RDO.06461186._000002.pool.root.1",
            "/cvmfs/atlas-nightlies.cern.ch/repo/data/data-art/TrigInDetValidation/samples/mc15_13TeV.300401.Pythia8BPhotospp_A14_CTEQ6L1_Bs_Jpsimu3p5mu3p5_phi.recon.RDO.e4397_s2608_r6869/RDO.06461186._000003.pool.root.1"
	]	
    },
    "Zee": {
        "source": "mc",
        "format": "RDO",
        "paths": [
            "/cvmfs/atlas-nightlies.cern.ch/repo/data/data-art/TrigInDetValidation/samples/valid1.601189.PhPy8EG_AZNLO_Zee.recon.RDO.e8514_e8528_s4111_s4114_r14622_tid33359313_00/RDO.33359313._000021.pool.root.1",
	    "/cvmfs/atlas-nightlies.cern.ch/repo/data/data-art/TrigInDetValidation/samples/valid1.601189.PhPy8EG_AZNLO_Zee.recon.RDO.e8514_e8528_s4111_s4114_r14622_tid33359313_00/RDO.33359313._000027.pool.root.1"
        ]
    },
    "Jpsiee": {
        "source": "mc",
        "format": "RDO",
        "paths": [
            "/cvmfs/atlas-nightlies.cern.ch/repo/data/data-art/TrigInDetValidation/samples/valid1.801272.P8B_A14_CTEQ6L1_Jpsie3e3.recon.RDO.e8514_e8528_s4111_s4114_r14622_tid33575013_00/RDO.33575013._000001.pool.root.1",
	    "/cvmfs/atlas-nightlies.cern.ch/repo/data/data-art/TrigInDetValidation/samples/valid1.801272.P8B_A14_CTEQ6L1_Jpsie3e3.recon.RDO.e8514_e8528_s4111_s4114_r14622_tid33575013_00/RDO.33575013._000010.pool.root.1"
        ]
    },
    "Single_el": {
        "source": "mc",
        "format": "RDO",
        "paths": [
            "/cvmfs/atlas-nightlies.cern.ch/repo/data/data-art/TrigInDetValidation/samples/mc15_13TeV.159010.ParticleGenerator_e_Et7to80.recon.RDO.e1948_s2726_r7728/RDO.10240159._000001.pool.root.1"
        ]
    },
    "Single_el_pu40": {
        "source": "mc",
        "format": "RDO",
        "paths": [
            "/cvmfs/atlas-nightlies.cern.ch/repo/data/data-art/TrigInDetValidation/samples/mc15_13TeV.159010.ParticleGenerator_e_Et7to80.recon.RDO.e1948_s2726_r7772/RDO.09929877._000001.pool.root.1"
        ]
    },
    "Single_el_larged0": {
        "source": "mc",
        "format": "RDO",
        "paths": [
            "/cvmfs/atlas-nightlies.cern.ch/repo/data/data-art/TrigInDetValidation/samples/mc15_13TeV.159053.ParticleGenerator_e_Et7to80_vertxy20.recon.RDO.e3603_s2726_r7728/RDO.10240167._000001.pool.root.1"
        ]
    },
    "Single_el_larged0_pu40": {
        "source": "mc",
        "format": "RDO",
        "paths": [
            "/cvmfs/atlas-nightlies.cern.ch/repo/data/data-art/TrigInDetValidation/samples/mc15_13TeV.159053.ParticleGenerator_e_Et7to80_vertxy20.recon.RDO.e3603_s2726_r7772/RDO.09945414._000001.pool.root.1"
        ]
    },
    "Ztautau": {
        "source": "mc",
        "format": "RDO",
        "paths": [
            "/cvmfs/atlas-nightlies.cern.ch/repo/data/data-art/TrigInDetValidation/samples/valid1.601191.PhPy8EG_AZNLO_Ztautau.recon.RDO.e8514_e8528_s4111_s4114_r14622_tid33359327_00/RDO.33359327._000005.pool.root.1",
	    "/cvmfs/atlas-nightlies.cern.ch/repo/data/data-art/TrigInDetValidation/samples/valid1.601191.PhPy8EG_AZNLO_Ztautau.recon.RDO.e8514_e8528_s4111_s4114_r14622_tid33359327_00/RDO.33359327._000006.pool.root.1"
        ]
    },
    "StauStau": {
        "source": "mc",
        "format": "RDO",
        "paths": [
            "/cvmfs/atlas-nightlies.cern.ch/repo/data/data-art/TrigInDetValidation/samples/valid1.516640.MGPy8EG_A14NNPDF23LO_StauStauLLP_100_0_1ns.recon.RDO.e8481_e8455_s3928_s3874_r13929_tid30933951_00/RDO.30933951._000001.pool.root.1",
	    "/cvmfs/atlas-nightlies.cern.ch/repo/data/data-art/TrigInDetValidation/samples/valid1.516640.MGPy8EG_A14NNPDF23LO_StauStauLLP_100_0_1ns.recon.RDO.e8481_e8455_s3928_s3874_r13929_tid30933951_00/RDO.30933951._000006.pool.root.1"
        ]
    },
    "SelSel": {
        "source": "mc",
        "format": "RDO",
        "paths": [
            "/cvmfs/atlas-nightlies.cern.ch/repo/data/data-art/TrigInDetValidation/samples/valid1.516757.MGPy8EG_A14NNPDF23LO_SelSelLLP_100_0_1ns.recon.RDO.e8481_e8455_s3928_s3874_r13929_tid30942694_00/RDO.30942694._000001.pool.root.1",
	    "/cvmfs/atlas-nightlies.cern.ch/repo/data/data-art/TrigInDetValidation/samples/valid1.516757.MGPy8EG_A14NNPDF23LO_SelSelLLP_100_0_1ns.recon.RDO.e8481_e8455_s3928_s3874_r13929_tid30942694_00/RDO.30942694._000002.pool.root.1",
            "/cvmfs/atlas-nightlies.cern.ch/repo/data/data-art/TrigInDetValidation/samples/valid1.516757.MGPy8EG_A14NNPDF23LO_SelSelLLP_100_0_1ns.recon.RDO.e8481_e8455_s3928_s3874_r13929_tid30942694_00/RDO.30942694._000005.pool.root.1",
            "/cvmfs/atlas-nightlies.cern.ch/repo/data/data-art/TrigInDetValidation/samples/valid1.516757.MGPy8EG_A14NNPDF23LO_SelSelLLP_100_0_1ns.recon.RDO.e8481_e8455_s3928_s3874_r13929_tid30942694_00/RDO.30942694._000006.pool.root.1"
        ]
    },
    "SmuSmu": {
        "source": "mc",
        "format": "RDO",
        "paths": [
            "/cvmfs/atlas-nightlies.cern.ch/repo/data/data-art/TrigInDetValidation/samples/valid1.516697.MGPy8EG_A14NNPDF23LO_SmuSmuLLP_100_0_1ns.recon.RDO.e8481_e8455_s3928_s3874_r13929_tid30942696_00/RDO.30942696._000001.pool.root.1",
	    "/cvmfs/atlas-nightlies.cern.ch/repo/data/data-art/TrigInDetValidation/samples/valid1.516697.MGPy8EG_A14NNPDF23LO_SmuSmuLLP_100_0_1ns.recon.RDO.e8481_e8455_s3928_s3874_r13929_tid30942696_00/RDO.30942696._000002.pool.root.1",
            "/cvmfs/atlas-nightlies.cern.ch/repo/data/data-art/TrigInDetValidation/samples/valid1.516697.MGPy8EG_A14NNPDF23LO_SmuSmuLLP_100_0_1ns.recon.RDO.e8481_e8455_s3928_s3874_r13929_tid30942696_00/RDO.30942696._000009.pool.root.1",
            "/cvmfs/atlas-nightlies.cern.ch/repo/data/data-art/TrigInDetValidation/samples/valid1.516697.MGPy8EG_A14NNPDF23LO_SmuSmuLLP_100_0_1ns.recon.RDO.e8481_e8455_s3928_s3874_r13929_tid30942696_00/RDO.30942696._000010.pool.root.1"
        ]
    },
    "SlepSlep": {
        "source": "mc",
        "format": "RDO",
        "paths": [
            "/cvmfs/atlas-nightlies.cern.ch/repo/data/data-art/TrigInDetValidation/samples/valid1.516757.MGPy8EG_A14NNPDF23LO_SelSelLLP_100_0_1ns.recon.RDO.e8481_e8455_s3928_s3874_r13929_tid30942694_00/RDO.30942694._000001.pool.root.1",
	    "/cvmfs/atlas-nightlies.cern.ch/repo/data/data-art/TrigInDetValidation/samples/valid1.516697.MGPy8EG_A14NNPDF23LO_SmuSmuLLP_100_0_1ns.recon.RDO.e8481_e8455_s3928_s3874_r13929_tid30942696_00/RDO.30942696._000001.pool.root.1",
	    "/cvmfs/atlas-nightlies.cern.ch/repo/data/data-art/TrigInDetValidation/samples/valid1.516640.MGPy8EG_A14NNPDF23LO_StauStauLLP_100_0_1ns.recon.RDO.e8481_e8455_s3928_s3874_r13929_tid30933951_00/RDO.30933951._000001.pool.root.1"
        ]
    },
    "RHadron": {
        "source": "mc",
        "format": "RDO",
        "paths": [
            "/cvmfs/atlas-nightlies.cern.ch/repo/data/data-art/TrigInDetValidation/samples/mc16_13TeV.448024.MGPy8EG_A14NNPDF23LO_TT_RPVdirectBL_1200_tau_1ns.recon.RDO.e6768_s3338_r11265_tid19016862_00/RDO.19016862._000002.pool.root.1",
            "/cvmfs/atlas-nightlies.cern.ch/repo/data/data-art/TrigInDetValidation/samples/mc16_13TeV.448024.MGPy8EG_A14NNPDF23LO_TT_RPVdirectBL_1200_tau_1ns.recon.RDO.e6768_s3338_r11265_tid19016862_00/RDO.19016862._000003.pool.root.1",
            "/cvmfs/atlas-nightlies.cern.ch/repo/data/data-art/TrigInDetValidation/samples/mc16_13TeV.448024.MGPy8EG_A14NNPDF23LO_TT_RPVdirectBL_1200_tau_1ns.recon.RDO.e6768_s3338_r11265_tid19016862_00/RDO.19016862._000004.pool.root.1",
            "/cvmfs/atlas-nightlies.cern.ch/repo/data/data-art/TrigInDetValidation/samples/mc16_13TeV.448024.MGPy8EG_A14NNPDF23LO_TT_RPVdirectBL_1200_tau_1ns.recon.RDO.e6768_s3338_r11265_tid19016862_00/RDO.19016862._000006.pool.root.1",
            "/cvmfs/atlas-nightlies.cern.ch/repo/data/data-art/TrigInDetValidation/samples/mc16_13TeV.448024.MGPy8EG_A14NNPDF23LO_TT_RPVdirectBL_1200_tau_1ns.recon.RDO.e6768_s3338_r11265_tid19016862_00/RDO.19016862._000007.pool.root.1"
        ]
    },
    "data_run2_reco_run3_AOD": {
        "source": "data",
        "format": "AOD",
        "paths": [
            "/cvmfs/atlas-nightlies.cern.ch/repo/data/data-art/Tier0ChainTests/data18_13TeV.00357772.physics_Main.recon.AOD.r13286/AOD.27654050._000557.pool.root.1"
        ] 
    }
}
